Demographic_table_results
…
1
Mean (SD); n (%)

2
One-way analysis of means; Pearson’s Chi-squared test

Parametricity

CST_final |> 
  group_by(Group) |>
  shapiro_test(Age, PANAS_PA, PANAS_NA, EA1, EA2, Tiredness_1, Tiredness_2, Femininity, Masculinity, P4, E2, Tes)

# A tibble: 58 × 4
   Group variable    statistic       p
   <fct> <chr>           <dbl>   <dbl>
 1 Males Age             0.953 0.143  
 2 Males EA1             0.908 0.00642
 3 Males EA2             0.957 0.180  
 4 Males Femininity      0.976 0.621  
 5 Males Masculinity     0.967 0.367  
 6 Males PANAS_NA        0.961 0.239  
 7 Males PANAS_PA        0.956 0.177  
 8 Males Tes             0.969 0.412  
 9 Males Tiredness_1     0.917 0.0116 
10 Males Tiredness_2     0.972 0.512  
# ℹ 48 more rows

CST_final |> 
  group_by(Group) |>
  shapiro_test(Age, PANAS_PA, PANAS_NA, EA1, EA2, Tiredness_1, Tiredness_2, Femininity, Masculinity, P4, E2, Tes)

# A tibble: 58 × 4
   Group variable    statistic       p
   <fct> <chr>           <dbl>   <dbl>
 1 Males Age             0.953 0.143  
 2 Males EA1             0.908 0.00642
 3 Males EA2             0.957 0.180  
 4 Males Femininity      0.976 0.621  
 5 Males Masculinity     0.967 0.367  
 6 Males PANAS_NA        0.961 0.239  
 7 Males PANAS_PA        0.956 0.177  
 8 Males Tes             0.969 0.412  
 9 Males Tiredness_1     0.917 0.0116 
10 Males Tiredness_2     0.972 0.512  
# ℹ 48 more rows
…
STEM

STEM <- table(CST_final$STEM, CST_final$Group)

chisq_test(STEM)

# A tibble: 1 × 6
      n statistic       p    df method          p.signif
* <int>     <dbl>   <dbl> <int> <chr>           <chr>   
1   166      18.2 0.00115     4 Chi-square test **      

pairwise_chisq_gof_test(STEM,p.adjust.method = "fdr")

# A tibble: 45 × 8
       n group1 group2 statistic       p    df  p.adj p.adj.signif
 * <int> <chr>  <chr>      <dbl>   <dbl> <dbl>  <dbl> <chr>       
 1     2 grp1   grp2      4.83   0.028       1 0.126  ns          
 2     2 grp1   grp3      8.1    0.00443     1 0.0526 ns          
 3     2 grp1   grp4      0.474  0.491       1 0.651  ns          
 4     2 grp1   grp5      4.83   0.028       1 0.126  ns          
 5     2 grp1   grp6      0.0435 0.835       1 0.886  ns          
 6     2 grp1   grp7      0.36   0.549       1 0.706  ns          
 7     2 grp1   grp8      0.167  0.683       1 0.823  ns          
 8     2 grp1   grp9      2.13   0.144       1 0.319  ns          
 9     2 grp1   grp10     0.0435 0.835       1 0.886  ns          
10     2 grp2   grp3      0.472  0.492       1 0.651  ns          
# ℹ 35 more rows
…
